Division,WeightClassKg,Place,Name,Team,BodyweightKg,Best3SquatKg,Best3BenchKg,Best3DeadliftKg,TotalKg,Equipment,Event,Sex
Boys,51.71,1,Gordon Griesel,Fort Worth Boswell,50.53,102.06,65.77,108.86,276.69,Single-ply,SBD,M
Boys,51.71,DQ,Sergio Mota,Fort Worth Chisholm Trail,49.71,99.79,,124.74,,Single-ply,SBD,M
Boys,55.79,1,Nate Sylakhom,Fort Worth Boswell,54.25,127.01,61.23,158.76,347,Single-ply,SBD,M
Boys,55.79,2,Samuel Eggleston,Saginaw,54.88,106.59,52.16,113.4,272.16,Single-ply,SBD,M
Boys,59.87,1,Jacob Densmore,Fort Worth Chisholm Trail,59.51,117.93,70.31,124.74,312.98,Single-ply,SBD,M
Boys,59.87,2,Nick Sieg,Fort Worth Chisholm Trail,58.24,120.2,65.77,122.47,308.44,Single-ply,SBD,M
Boys,67.13,1,Colt Edwards,Fort Worth Boswell,66.13,170.1,106.59,154.22,430.91,Single-ply,SBD,M
Boys,67.13,2,Richard Taylor,Fort Worth Boswell,66.13,136.08,106.59,158.76,401.43,Single-ply,SBD,M
Boys,67.13,3,Ethan Hudson,Fort Worth Boswell,64.77,140.61,90.72,140.61,371.95,Single-ply,SBD,M
Boys,67.13,4,Darryan Clark,Saginaw,66.95,133.81,74.84,161.03,369.68,Single-ply,SBD,M
Boys,67.13,5,Gavin Johnson,Saginaw,64.95,124.74,92.99,129.27,347,Single-ply,SBD,M
Boys,67.13,6,Zunair Waseem,Saginaw,62.96,92.99,65.77,115.67,274.42,Single-ply,SBD,M
Boys,67.13,DQ,Casper Carter,Saginaw,60.24,97.52,,,,Single-ply,SBD,M
Boys,67.13,DQ,Ethan Burkett,Fort Worth Boswell,64.5,127.01,,,,Single-ply,SBD,M
Boys,74.84,1,Noah Smith,Saginaw,74.03,192.78,117.93,206.38,517.1,Single-ply,SBD,M
Boys,74.84,2,Michael Brewer,Saginaw,73.12,170.1,111.13,165.56,446.79,Single-ply,SBD,M
Boys,74.84,3,Carson Counts,Fort Worth Boswell,74.03,136.08,86.18,161.03,383.29,Single-ply,SBD,M
Boys,74.84,4,Cj Newton,Fort Worth Chisholm Trail,71.21,136.08,88.45,156.49,381.02,Single-ply,SBD,M
Boys,74.84,5,Matthew Davis #2,Fort Worth Boswell,72.76,140.61,79.38,136.08,356.07,Single-ply,SBD,M
Boys,74.84,6,William Booker,Fort Worth Paschal,69.31,127.01,77.11,142.88,347,Single-ply,SBD,M
Boys,74.84,7,Emerson Sheperd,Saginaw,72.57,108.86,77.11,158.76,344.73,Single-ply,SBD,M
Boys,74.84,8,Jaden Fisher,Fort Worth Chisholm Trail,70.85,136.08,70.31,136.08,342.46,Single-ply,SBD,M
Boys,74.84,DQ,Deon Lipscomb,Fort Worth Boswell,73.84,129.27,,149.69,,Single-ply,SBD,M
Boys,82.1,1,Dylan Allsbrooks,Fort Worth Boswell,80.65,174.63,115.67,170.1,460.4,Single-ply,SBD,M
Boys,82.1,2,Sean Parnell,Fort Worth Paschal,76.2,163.29,83.91,154.22,401.43,Single-ply,SBD,M
Boys,82.1,3,Jorge Alvarez,Fort Worth Boswell,76.11,142.88,97.52,158.76,399.16,Single-ply,SBD,M
Boys,82.1,4,Andres Delgadillo,Saginaw,80.38,147.42,79.38,170.1,396.89,Single-ply,SBD,M
Boys,82.1,5,Garrett Maile,Fort Worth Chisholm Trail,75.3,136.08,102.06,147.42,385.55,Single-ply,SBD,M
Boys,82.1,6,Elliot Titus,Fort Worth Paschal,76.2,136.08,86.18,156.49,378.75,Single-ply,SBD,M
Boys,82.1,7,Michael Garcia #7,Saginaw,80.56,129.27,79.38,133.81,342.46,Single-ply,SBD,M
Boys,82.1,8,Stan Chwojdak,Saginaw,78.02,124.74,68.04,115.67,308.44,Single-ply,SBD,M
Boys,89.81,1,Joshua Mork,Fort Worth Boswell,88.72,210.92,158.76,235.87,605.55,Single-ply,SBD,M
Boys,89.81,2,Jovone Melendez,Fort Worth Boswell,86.36,170.1,111.13,190.51,471.74,Single-ply,SBD,M
Boys,89.81,3,Christian McClain,Fort Worth Chisholm Trail,88.81,163.29,113.4,176.9,453.59,Single-ply,SBD,M
Boys,89.81,4,Josh Martinez,Fort Worth Boswell,83.64,167.83,97.52,165.56,430.91,Single-ply,SBD,M
Boys,89.81,5,Oscar Campos,Fort Worth Paschal,82.92,149.69,95.25,181.44,426.38,Single-ply,SBD,M
Boys,89.81,6,James Webb,Fort Worth Chisholm Trail,89.63,165.56,86.18,172.37,424.11,Single-ply,SBD,M
Boys,89.81,7,Parker Anderson,Fort Worth Boswell,83.1,149.69,92.99,158.76,401.43,Single-ply,SBD,M
Boys,89.81,8,Trent Lowrie,Fort Worth Chisholm Trail,84.73,147.42,83.91,170.1,401.43,Single-ply,SBD,M
Boys,89.81,9,Dami Aremu,Saginaw,83.73,142.88,65.77,158.76,367.41,Single-ply,SBD,M
Boys,89.81,10,Reed Kimball,Fort Worth Paschal,87.91,151.95,68.04,142.88,362.87,Single-ply,SBD,M
Boys,99.79,1,Carlos Hernandez #8,Saginaw,93.26,215.46,111.13,206.38,532.97,Single-ply,SBD,M
Boys,99.79,2,Gannon Slovacek,Fort Worth Boswell,97.07,176.9,127.01,195.04,498.95,Single-ply,SBD,M
Boys,99.79,3,Tyler Luangraj,Saginaw,91.9,183.7,102.06,190.51,476.27,Single-ply,SBD,M
Boys,99.79,4,Trent Hubbert,Fort Worth Boswell,97.98,163.29,102.06,181.44,446.79,Single-ply,SBD,M
Boys,99.79,5,Kaden Jefferson,Saginaw,96.98,147.42,92.99,174.63,415.04,Single-ply,SBD,M
Boys,99.79,6,Garrett Palmer,Fort Worth Boswell,92.17,154.22,102.06,149.69,405.97,Single-ply,SBD,M
Boys,99.79,7,Dylan Garcia,Saginaw,96.34,145.15,83.91,172.37,401.43,Single-ply,SBD,M
Boys,99.79,8,Felix Rodriguez,Fort Worth Paschal,99.7,154.22,92.99,151.95,399.16,Single-ply,SBD,M
Boys,99.79,9,Nathan Stamps,Fort Worth Paschal,93.8,133.81,81.65,181.44,396.89,Single-ply,SBD,M
Boys,99.79,10,Nick Rangel,Fort Worth Paschal,99.16,138.35,86.18,167.83,392.36,Single-ply,SBD,M
Boys,99.79,11,Danny Simmons,Fort Worth Chisholm Trail,92.26,136.08,95.25,147.42,378.75,Single-ply,SBD,M
Boys,99.79,12,Jose Serrano,Fort Worth Chisholm Trail,93.62,136.08,97.52,145.15,378.75,Single-ply,SBD,M
Boys,99.79,DQ,Lous Bryant,Fort Worth Paschal,90.45,,,136.08,,Single-ply,SBD,M
Boys,99.79,DQ,Stephen Williams,Saginaw,99.52,195.04,,188.24,,Single-ply,SBD,M
Boys,109.77,1,Keondre Vassar,Fort Worth Boswell,101.97,240.4,147.42,235.87,623.69,Single-ply,SBD,M
Boys,109.77,2,Thomas McCowan,Saginaw,104.42,195.04,117.93,197.31,510.29,Single-ply,SBD,M
Boys,109.77,3,Matthew Michaels,Fort Worth Boswell,107.86,181.44,120.2,181.44,483.08,Single-ply,SBD,M
Boys,109.77,4,Hayden Herfkens,Fort Worth Chisholm Trail,109.32,151.95,111.13,158.76,421.84,Single-ply,SBD,M
Boys,109.77,5,Gavin Greenfield,Fort Worth Chisholm Trail,104.05,167.83,86.18,151.95,405.97,Single-ply,SBD,M
Boys,109.77,6,Junias Kasongo,Fort Worth Chisholm Trail,103.87,154.22,86.18,163.29,403.7,Single-ply,SBD,M
Boys,109.77,7,Seth Hidic,Fort Worth Paschal,107.68,142.88,86.18,158.76,387.82,Single-ply,SBD,M
Boys,124.74,1,Alex Trejo,Saginaw,119.48,226.8,136.08,226.8,589.67,Single-ply,SBD,M
Boys,124.74,2,Demetrius Winkfeild,Fort Worth Chisholm Trail,120.02,181.44,127.01,226.8,535.24,Single-ply,SBD,M
Boys,124.74,3,Case Mason,Saginaw,119.75,201.85,108.86,195.04,505.76,Single-ply,SBD,M
Boys,124.74,4,Juan Garcia #3,Fort Worth Chisholm Trail,117.75,172.37,106.59,176.9,455.86,Single-ply,SBD,M
Boys,124.74,5,Marco Moreno,Fort Worth Paschal,120.75,170.1,83.91,151.95,405.97,Single-ply,SBD,M
Boys,124.74,6,Edgar Ramirez,Fort Worth Paschal,111.31,158.76,92.99,149.69,401.43,Single-ply,SBD,M
Boys,124.74,7,Julian Campa,Fort Worth Boswell,123.92,147.42,77.11,167.83,392.36,Single-ply,SBD,M
Boys,124.74,8,Braeden Wright,Fort Worth Boswell,114.85,136.08,68.04,181.44,385.55,Single-ply,SBD,M
Boys,124.74+,1,Ryan Morales,Fort Worth Boswell,128.73,199.58,124.74,190.51,514.83,Single-ply,SBD,M
Boys,124.74+,2,Aiden Tremaine,Fort Worth Boswell,135.62,181.44,117.93,199.58,498.95,Single-ply,SBD,M
Boys,124.74+,3,James Ybarra,Fort Worth Chisholm Trail,141.43,199.58,111.13,170.1,480.81,Single-ply,SBD,M
Boys,124.74+,4,Barry Gorman,Fort Worth Chisholm Trail,135.62,179.17,97.52,176.9,453.59,Single-ply,SBD,M
Boys,124.74+,5,Da'Shawn Nunley,Fort Worth Paschal,134.44,140.61,86.18,149.69,376.48,Single-ply,SBD,M
Boys,124.74+,DQ,Nehemiah Redden,Fort Worth Paschal,167.92,117.93,77.11,,,Single-ply,SBD,M
