Division,WeightClassKg,Place,Name,Team,BodyweightKg,Best3SquatKg,Best3BenchKg,Best3DeadliftKg,TotalKg,Equipment,Event,Sex
Freshmen,51.71,1,Jose Rocha,Somerset,50.8,54.43,34.02,79.38,167.83,Single-ply,SBD,M
Freshmen,59.87,1,Neco Camarrilo,Jourdanton,58.06,147.42,65.77,117.93,331.12,Single-ply,SBD,M
Freshmen,59.87,2,Morgan Olivarri,Jourdanton,59.6,136.08,65.77,127.01,328.85,Single-ply,SBD,M
Freshmen,67.13,1,Anthony Estrada,Somerset,67.13,138.35,83.91,149.69,371.95,Single-ply,SBD,M
Freshmen,67.13,2,Joseph Lopez #7,Lytle,63.68,111.13,45.36,124.74,281.23,Single-ply,SBD,M
Freshmen,67.13,DQ,Robert Kinsel,Jourdanton,63.68,142.88,,,,Single-ply,SBD,M
Freshmen,67.13,DQ,Dakota Mendiola,Somerset,61.14,,,,,Single-ply,SBD,M
Freshmen,74.84,1,Jon Daigle,Marion,68.86,108.86,74.84,133.81,317.51,Single-ply,SBD,M
Freshmen,74.84,2,Kenton Spriggs,Marion,72.03,111.13,70.31,117.93,299.37,Single-ply,SBD,M
Freshmen,74.84,3,Arnold Herrera,Somerset,74.84,102.06,63.5,104.33,269.89,Single-ply,SBD,M
Freshmen,82.1,1,Alex Pena,Somerset,79.97,190.51,95.25,142.88,428.64,Single-ply,SBD,M
Freshmen,82.1,2,Zach Vyvlecka,Jourdanton,77.38,149.69,81.65,161.03,392.36,Single-ply,SBD,M
Freshmen,89.81,1,Manuel Vacca,Jourdanton,87.63,147.42,92.99,147.42,387.82,Single-ply,SBD,M
Freshmen,89.81,2,Rudy Martel,Pleasanton,85.18,151.95,90.72,142.88,385.55,Single-ply,SBD,M
Freshmen,89.81,3,Marc Flores,Jourdanton,87.82,136.08,88.45,129.27,353.8,Single-ply,SBD,M
Freshmen,99.79,1,Ryan Becthtel,Marion,90.26,136.08,74.84,142.88,353.8,Single-ply,SBD,M
Freshmen,109.77,1,James Woods,Somerset,109.77,183.7,106.59,226.8,517.1,Single-ply,SBD,M
Freshmen,124.74,1,Noel Mallet,Pleasanton,124.28,226.8,127.01,181.44,535.24,Single-ply,SBD,M
Freshmen,124.74,DQ,Cesar Morales,Somerset,115.67,,,,,Single-ply,SBD,M
Freshmen,124.74+,DQ,Domonic Alaquiinez,Somerset,131.54,,,,,Single-ply,SBD,M
Freshmen,,NS,Jc Evans,Pleasanton,,,,,,Single-ply,SBD,M
Freshmen,,NS,Kyler Spriggs,Marion,,,,,,Single-ply,SBD,M
Junior Varsity,51.71,1,Michael Ortiz,Somerset,49.9,58.97,49.9,102.06,210.92,Single-ply,SBD,M
Junior Varsity,51.71,2,Wyatt Forrest,Castroville Medina Valley,49.9,70.31,29.48,86.18,185.97,Single-ply,SBD,M
Junior Varsity,55.79,DQ,Travis Todd,Somerset,55.79,,,,,Single-ply,SBD,M
Junior Varsity,59.87,1,Anthony Perez,San Antonio Cole,57.24,129.27,83.91,142.88,356.07,Single-ply,SBD,M
Junior Varsity,59.87,2,Benjamin Uribe,Jourdanton,58.42,124.74,72.57,133.81,331.12,Single-ply,SBD,M
Junior Varsity,59.87,3,Garrison Kindred,Castroville Medina Valley,58.97,122.47,68.04,133.81,324.32,Single-ply,SBD,M
Junior Varsity,59.87,4,David Hernandez,Dilley,58.79,97.52,54.43,113.4,265.35,Single-ply,SBD,M
Junior Varsity,67.13,1,Brandon Davis,Jourdanton,62.87,183.7,86.18,170.1,439.98,Single-ply,SBD,M
Junior Varsity,67.13,2,Brandon De Los Santos,Jourdanton,62.32,167.83,86.18,165.56,419.57,Single-ply,SBD,M
Junior Varsity,67.13,3,Stephen Adams #2,Jourdanton,62.41,136.08,79.38,129.27,344.73,Single-ply,SBD,M
Junior Varsity,67.13,4,Barrett Blackledge,Center Point,60.51,90.72,63.5,136.08,290.3,Single-ply,SBD,M
Junior Varsity,74.84,5,Angel Vega,Castroville Medina Valley,67.22,81.65,70.31,86.18,238.14,Single-ply,SBD,M
Junior Varsity,82.1,1,Buddy Vega,Jourdanton,75.07,213.19,115.67,170.1,498.95,Single-ply,SBD,M
Junior Varsity,74.84,2,Jarren Scott,San Antonio Cole,74.03,165.56,111.13,181.44,458.13,Single-ply,SBD,M
Junior Varsity,74.84,3,Matt Fanno,Jourdanton,67.49,167.83,88.45,176.9,433.18,Single-ply,SBD,M
Junior Varsity,74.84,4,Darrian Jones,San Antonio Cole,70.67,154.22,88.45,163.29,405.97,Single-ply,SBD,M
Junior Varsity,74.84,5,Ivan Fernandez,Castroville Medina Valley,67.77,156.49,74.84,131.54,362.87,Single-ply,SBD,M
Junior Varsity,74.84,6,Isaiah Martinez,Lytle,71.76,136.08,83.91,142.88,362.87,Single-ply,SBD,M
Junior Varsity,74.84,7,Alec Oilar,San Antonio Cole,71.12,133.81,74.84,142.88,351.53,Single-ply,SBD,M
Junior Varsity,74.84,8,Aaron Walters,Center Point,71.85,122.47,68.04,145.15,335.66,Single-ply,SBD,M
Junior Varsity,74.84,9,Spenser Taylor,Somerset,72.57,102.06,65.77,122.47,290.3,Single-ply,SBD,M
Junior Varsity,74.84,10,Jason Hoosier,Somerset,68.04,104.33,65.77,113.4,283.5,Single-ply,SBD,M
Junior Varsity,74.84,11,Zack Whiteley,Castroville Medina Valley,67.49,92.99,61.23,108.86,263.08,Single-ply,SBD,M
Junior Varsity,74.84,DQ,Ritchie San Miguel,Dilley,72.67,,,,,Single-ply,SBD,M
Junior Varsity,74.84,DQ,Elijah Rollins,Somerset,71.21,,,,,Single-ply,SBD,M
Junior Varsity,82.1,1,Nathan Salazar,Somerset,82.1,138.35,92.99,165.56,396.89,Single-ply,SBD,M
Junior Varsity,82.1,2,Josh Cooper,Center Point,76.66,131.54,83.91,136.08,351.53,Single-ply,SBD,M
Junior Varsity,82.1,3,Oscar de Luna,San Antonio Memorial,77.11,138.35,72.57,113.4,324.32,Single-ply,SBD,M
Junior Varsity,82.1,4,Jacob Estala,San Antonio Memorial,76.02,99.79,65.77,127.01,292.57,Single-ply,SBD,M
Junior Varsity,82.1,DQ,Bryce Macdonald,Castroville Medina Valley,76.84,106.59,,,,Single-ply,SBD,M
Junior Varsity,89.81,1,Thomas Rodriguez,Somerset,88.45,206.38,97.52,195.04,498.95,Single-ply,SBD,M
Junior Varsity,89.81,2,Edward Ruiz,Jourdanton,89.72,183.7,106.59,165.56,455.86,Single-ply,SBD,M
Junior Varsity,89.81,3,Mark Sustaita,Castroville Medina Valley,85.28,147.42,88.45,183.7,419.57,Single-ply,SBD,M
Junior Varsity,89.81,4,Nick Gonzales,Floresville,83.19,142.88,97.52,158.76,399.16,Single-ply,SBD,M
Junior Varsity,89.81,5,Jacob Thomas,Floresville,88.54,161.03,90.72,147.42,399.16,Single-ply,SBD,M
Junior Varsity,89.81,6,Dakota Marshall,Somerset,87.63,102.06,90.72,165.56,358.34,Single-ply,SBD,M
Junior Varsity,89.81,7,Bridger Netting,Castroville Medina Valley,85.64,120.2,65.77,136.08,322.05,Single-ply,SBD,M
Junior Varsity,89.81,DQ,Jose Chapa,Castroville Medina Valley,86.91,129.27,,,,Single-ply,SBD,M
Junior Varsity,99.79,1,Nick Delgado,Pleasanton,94.98,199.58,145.15,213.19,557.92,Single-ply,SBD,M
Junior Varsity,99.79,2,Frank Balaszi,Jourdanton,97.7,195.04,106.59,183.7,485.34,Single-ply,SBD,M
Junior Varsity,99.79,3,Andrew Garcia,Pleasanton,92.26,183.7,104.33,192.78,480.81,Single-ply,SBD,M
Junior Varsity,99.79,4,Andrew Ortiz,Jourdanton,98.7,181.44,111.13,179.17,471.74,Single-ply,SBD,M
Junior Varsity,99.79,5,Tyler Mamere,San Antonio Cole,95.8,167.83,115.67,185.97,469.47,Single-ply,SBD,M
Junior Varsity,99.79,6,Freddy Castellanos,Somerset,96.43,127.01,106.59,161.03,394.63,Single-ply,SBD,M
Junior Varsity,99.79,7,Tyler Thomas,Center Point,90.26,108.86,90.72,181.44,381.02,Single-ply,SBD,M
Junior Varsity,99.79,8,Travis McGehee,Center Point,92.35,113.4,74.84,136.08,324.32,Single-ply,SBD,M
Junior Varsity,109.77,1,Dustin De La Vega,Somerset,102.97,142.88,127.01,170.1,439.98,Single-ply,SBD,M
Junior Varsity,109.77,2,Abraham May,San Antonio Cole,104.78,165.56,106.59,167.83,439.98,Single-ply,SBD,M
Junior Varsity,109.77,DQ,Ross Reynolds,Jourdanton,102.87,226.8,,,,Single-ply,SBD,M
Junior Varsity,124.74,1,Nathan Serna,Jourdanton,117.84,226.8,106.59,192.78,526.17,Single-ply,SBD,M
Junior Varsity,124.74,2,Hector Serrano,Somerset,123.83,215.46,113.4,158.76,487.61,Single-ply,SBD,M
Junior Varsity,124.74,3,Jordan Justice,Center Point,112.31,142.88,97.52,158.76,399.16,Single-ply,SBD,M
Junior Varsity,124.74,4,Dylan Stone,Dilley,117.3,122.47,88.45,158.76,369.68,Single-ply,SBD,M
Junior Varsity,124.74,5,Jesse Eguia,Dilley,110.59,142.88,68.04,136.08,347,Single-ply,SBD,M
Junior Varsity,124.74,6,Manuel Rodriguez #5,Dilley,118.48,111.13,77.11,124.74,312.98,Single-ply,SBD,M
Junior Varsity,124.74+,1,Jesús Torres,Somerset,127.01,174.63,79.38,174.63,428.64,Single-ply,SBD,M
Junior Varsity,124.74+,2,Tristian Chavera,Castroville Medina Valley,131.81,172.37,86.18,165.56,424.11,Single-ply,SBD,M
Junior Varsity,124.74+,DQ,Chris Cobb,Somerset,136.53,183.7,,,,Single-ply,SBD,M
Junior Varsity,124.74+,DQ,Zach Torres,Somerset,129.27,,,,,Single-ply,SBD,M
Junior Varsity,,NS,Demetrius Brown,San Antonio Memorial,,,,,,Single-ply,SBD,M
Junior Varsity,,NS,Aaron Jupe,Jourdanton,,,,,,Single-ply,SBD,M
Junior Varsity,,NS,Eric Garcia,Lytle,,,,,,Single-ply,SBD,M
Junior Varsity,,NS,Gerardo Morales,Lytle,,,,,,Single-ply,SBD,M
Junior Varsity,,NS,Chris Benavidez,Dilley,,,,,,Single-ply,SBD,M
Junior Varsity,,NS,George Lockamy,Floresville,,,,,,Single-ply,SBD,M
Junior Varsity,,NS,Christian Sancvhez,Floresville,,,,,,Single-ply,SBD,M
Junior Varsity,,NS,Ashton Barrientes,Floresville,,,,,,Single-ply,SBD,M
Junior Varsity,,NS,Eddie Chavez,Floresville,,,,,,Single-ply,SBD,M
Junior Varsity,,NS,Tyler Wilson #4,Castroville Medina Valley,,,,,,Single-ply,SBD,M
Junior Varsity,,NS,Ruben Mendez,Castroville Medina Valley,,,,,,Single-ply,SBD,M
Junior Varsity,,NS,Adrian Sustaita,Castroville Medina Valley,,,,,,Single-ply,SBD,M
Junior Varsity,,NS,Jonathon Edwards,Pleasanton,,,,,,Single-ply,SBD,M
Junior Varsity,,NS,Isaac Flores,Pleasanton,,,,,,Single-ply,SBD,M
Junior Varsity,,NS,Nick Calderone,San Antonio Cole,,,,,,Single-ply,SBD,M
Junior Varsity,,NS,Jonah Masters,San Antonio Cole,,,,,,Single-ply,SBD,M
Junior Varsity,,NS,Zach Reeves,San Antonio Cole,,,,,,Single-ply,SBD,M
Junior Varsity,,NS,Jacob Calders,San Antonio Cole,,,,,,Single-ply,SBD,M
Junior Varsity,,NS,David Sosa,San Antonio Cole,,,,,,Single-ply,SBD,M
Junior Varsity,,NS,Hunter Duplessis,San Antonio Cole,,,,,,Single-ply,SBD,M
Boys,55.79,1,Jermaine Mendiola,Somerset,51.94,174.63,83.91,161.03,419.57,Single-ply,SBD,M
Boys,51.71,2,Angel Bermudez,Poteet,51.62,154.22,99.79,149.69,403.7,Single-ply,SBD,M
Boys,51.71,3,Matt Garza,Jourdanton,45.81,120.2,77.11,106.59,303.91,Single-ply,SBD,M
Boys,51.71,4,Maverick Graham,Lytle,48.9,104.33,56.7,117.93,278.96,Single-ply,SBD,M
Boys,51.71,5,Seth Aguinaga,Lytle,50.17,99.79,49.9,117.93,267.62,Single-ply,SBD,M
Boys,51.71,6,Caleb Vera,Poteet,46.81,90.72,54.43,108.86,254.01,Single-ply,SBD,M
Boys,55.79,1,Max Obregon,Dilley,55.79,192.78,113.4,188.24,494.42,Single-ply,SBD,M
Boys,55.79,2,Jm Elizondo,Pearsall,55.07,158.76,79.38,161.03,399.16,Single-ply,SBD,M
Boys,55.79,3,Raul Guerra,Poteet,55.7,131.54,90.72,142.88,365.14,Single-ply,SBD,M
Boys,59.87,4,Michael Donato,San Antonio Memorial,55.97,140.61,72.57,138.35,351.53,Single-ply,SBD,M
Boys,55.79,5,Isaiah Lucio,Pearsall,52.71,122.47,88.45,136.08,347,Single-ply,SBD,M
Boys,55.79,6,Sebastian Estrada,Somerset,55.34,131.54,63.5,145.15,340.19,Single-ply,SBD,M
Boys,59.87,7,Daniel Martinez #19,Dilley,55.97,122.47,86.18,131.54,340.19,Single-ply,SBD,M
Boys,55.79,8,Lane Geisen,Center Point,54.16,113.4,63.5,140.61,317.51,Single-ply,SBD,M
Boys,55.79,9,Joe Anthony Oliva,Poteet,55.25,90.72,52.16,127.01,269.89,Single-ply,SBD,M
Boys,59.87,1,Ricky Guerra,Poteet,58.15,197.31,117.93,206.38,521.63,Single-ply,SBD,M
Boys,59.87,2,Rudy Martinez,Carrizo Springs,59.6,188.24,95.25,213.19,496.68,Single-ply,SBD,M
Boys,67.13,3,Alan Espinoza,Dilley,59.92,176.9,102.06,188.24,467.2,Single-ply,SBD,M
Boys,59.87,4,Raul Cruz,Carrizo Springs,58.69,165.56,83.91,183.7,433.18,Single-ply,SBD,M
Boys,59.87,5,Uriel Solorzano,Jourdanton,58.33,183.7,79.38,151.95,415.04,Single-ply,SBD,M
Boys,59.87,6,Kris Imhof,San Antonio Cole,58.69,149.69,83.91,174.63,408.23,Single-ply,SBD,M
Boys,59.87,7,Matthew Medrano,Pearsall,58.97,165.56,74.84,165.56,405.97,Single-ply,SBD,M
Boys,59.87,8,Alfonzo Cruz,Carrizo Springs,59.51,131.54,81.65,145.15,358.34,Single-ply,SBD,M
Boys,59.87,DQ,Daniel Cardenas,Uvalde,59.78,,,,,Single-ply,SBD,M
Boys,67.13,1,Juan Medina,Floresville,65.68,174.63,106.59,170.1,451.32,Single-ply,SBD,M
Boys,67.13,2,Christian Cedeno,Lytle,66.86,165.56,92.99,179.17,437.72,Single-ply,SBD,M
Boys,67.13,3,Aaron Realme,Pearsall,60.87,163.29,86.18,167.83,417.3,Single-ply,SBD,M
Boys,67.13,4,Martin Delgado,Pearsall,64.59,147.42,102.06,167.83,417.3,Single-ply,SBD,M
Boys,67.13,5,Craig Jacobs,Center Point,65.59,154.22,99.79,158.76,412.77,Single-ply,SBD,M
Boys,67.13,6,Emery Flores,Rocksprings,67.13,140.61,102.06,170.1,412.77,Single-ply,SBD,M
Boys,67.13,7,Deiondre Omoruyi,Carrizo Springs,65.86,158.76,79.38,172.37,410.5,Single-ply,SBD,M
Boys,67.13,8,Chris Cherry,Center Point,64.95,154.22,92.99,156.49,403.7,Single-ply,SBD,M
Boys,67.13,9,Storm Brown,Floresville,65.77,142.88,97.52,163.29,403.7,Single-ply,SBD,M
Boys,67.13,10,Sid Alcoser,Somerset,66.81,158.76,86.18,158.76,403.7,Single-ply,SBD,M
Boys,67.13,11,Jerid Gesell,Center Point,64.14,151.95,97.52,149.69,399.16,Single-ply,SBD,M
Boys,67.13,12,Michael Gutierrez,San Antonio East Central,65.68,136.08,83.91,145.15,365.14,Single-ply,SBD,M
Boys,67.13,13,Jason Faulkner,Comfort,65.77,122.47,86.18,145.15,353.8,Single-ply,SBD,M
Boys,67.13,14,Clay Anthony,Comfort,64.5,127.01,72.57,145.15,344.73,Single-ply,SBD,M
Boys,67.13,15,Nick Martinez,Carrizo Springs,64.59,120.2,74.84,136.08,331.12,Single-ply,SBD,M
Boys,67.13,16,Mario Benavidez,Rocksprings,67.13,117.93,72.57,127.01,317.51,Single-ply,SBD,M
Boys,67.13,17,Anthony Carlos,Comfort,63.87,88.45,61.23,145.15,294.84,Single-ply,SBD,M
Boys,67.13,18,Michael Camacho,San Antonio Memorial,63.68,81.65,49.9,129.27,260.82,Single-ply,SBD,M
Boys,74.84,1,Joseph Ortiz,Jourdanton,72.76,240.4,122.47,204.12,566.99,Single-ply,SBD,M
Boys,74.84,2,Nathan Garcia,Jourdanton,74.03,215.46,106.59,226.8,548.85,Single-ply,SBD,M
Boys,74.84,3,Trip Locke,Jourdanton,71.67,201.85,138.35,199.58,539.77,Single-ply,SBD,M
Boys,74.84,4,Nathan Medrano,Lytle,69.85,229.06,127.01,181.44,537.51,Single-ply,SBD,M
Boys,74.84,5,John Pond,San Antonio East Central,73.66,190.51,111.13,195.04,496.68,Single-ply,SBD,M
Boys,74.84,6,Antonio Martinez,Lytle,74.12,188.24,117.93,179.17,485.34,Single-ply,SBD,M
Boys,74.84,7,Dean Santos,Lytle,72.03,185.97,106.59,154.22,446.79,Single-ply,SBD,M
Boys,74.84,8,Mark Saldana,San Antonio East Central,73.57,165.56,106.59,151.95,424.11,Single-ply,SBD,M
Boys,74.84,9,Daniel Martin #5,Center Point,73.48,145.15,92.99,170.1,408.23,Single-ply,SBD,M
Boys,74.84,10,Andy Joslin,Floresville,69.67,170.1,74.84,147.42,392.36,Single-ply,SBD,M
Boys,74.84,11,Jaaziel Buenrostro,Carrizo Springs,70.22,122.47,92.99,154.22,369.68,Single-ply,SBD,M
Boys,74.84,12,Louie Salazar,Carrizo Springs,70.58,136.08,77.11,145.15,358.34,Single-ply,SBD,M
Boys,74.84,13,Sol Rodriguez,Pearsall,69.67,120.2,79.38,142.88,342.46,Single-ply,SBD,M
Boys,74.84,14,Matt Esparza,San Antonio Memorial,68.95,108.86,65.77,158.76,333.39,Single-ply,SBD,M
Boys,74.84,15,Isaiah Sandaval,Poteet,67.49,111.13,72.57,120.2,303.91,Single-ply,SBD,M
Boys,74.84,16,Jose Oreguera,Comfort,74.39,97.52,79.38,113.4,290.3,Single-ply,SBD,M
Boys,74.84,DQ,Isac Alvarez,Crystal City,67.86,,,,,Single-ply,SBD,M
Boys,82.1,1,Orlando Medrano,Lytle,81.1,226.8,133.81,217.72,578.33,Single-ply,SBD,M
Boys,82.1,2,Raul Chavez,San Antonio East Central,81.47,219.99,131.54,199.58,551.11,Single-ply,SBD,M
Boys,82.1,3,Jourden Stanley,Marion,80.92,183.7,113.4,204.12,501.22,Single-ply,SBD,M
Boys,82.1,4,Ashton Williams,San Antonio East Central,77.93,195.04,113.4,181.44,489.88,Single-ply,SBD,M
Boys,82.1,5,Steve Medrano,Dilley,80.92,195.04,106.59,176.9,478.54,Single-ply,SBD,M
Boys,82.1,6,Michael Vasquez,Carrizo Springs,81.47,170.1,115.67,183.7,469.47,Single-ply,SBD,M
Boys,89.81,7,Eugene Leyva,Crystal City,82.19,181.44,99.79,185.97,467.2,Single-ply,SBD,M
Boys,82.1,8,Matt Chapa,Center Point,76.84,170.1,117.93,170.1,458.13,Single-ply,SBD,M
Boys,82.1,9,Hagan Brown,Floresville,81.47,174.63,106.59,174.63,455.86,Single-ply,SBD,M
Boys,82.1,10,Estevan Rodriguez,Uvalde,80.2,156.49,95.25,181.44,433.18,Single-ply,SBD,M
Boys,82.1,11,Caleb Lozano,Comfort,75.11,163.29,88.45,167.83,419.57,Single-ply,SBD,M
Boys,82.1,12,Elliot Ramirez,San Antonio Memorial,79.02,163.29,92.99,158.76,415.04,Single-ply,SBD,M
Boys,82.1,13,Ty Bateman,Marion,81.19,115.67,122.47,161.03,399.16,Single-ply,SBD,M
Boys,82.1,14,Daniel Mendez,Carrizo Springs,79.65,92.99,70.31,149.69,312.98,Single-ply,SBD,M
Boys,82.1,15,Jorge Sanchez,Pearsall,80.38,102.06,65.77,136.08,303.91,Single-ply,SBD,M
Boys,82.1,DQ,Jonathan Darby,Lytle,80.74,195.04,,,,Single-ply,SBD,M
Boys,82.1,DQ,Adiran Mendoza,Dilley,78.56,154.22,,,,Single-ply,SBD,M
Boys,89.81,1,Ashton Rouska,Northside Brandeis,83.01,258.55,165.56,301.64,725.75,Single-ply,SBD,M
Boys,89.81,2,Joe Estrada,Jourdanton,86.82,276.69,165.56,229.06,671.32,Single-ply,SBD,M
Boys,89.81,3,John Valdez,Somerset,83.28,240.4,154.22,204.12,598.74,Single-ply,SBD,M
Boys,89.81,4,Dylan Aguinaga,Lytle,82.37,226.8,113.4,219.99,560.19,Single-ply,SBD,M
Boys,89.81,5,Silvero Trejo,Pearsall,88.63,226.8,131.54,199.58,557.92,Single-ply,SBD,M
Boys,89.81,6,Demetri Molina,Somerset,84.37,215.46,124.74,204.12,544.31,Single-ply,SBD,M
Boys,89.81,7,Calvin Ramirez,Carrizo Springs,85.09,201.85,115.67,188.24,505.76,Single-ply,SBD,M
Boys,89.81,8,Jacob Lopez,San Antonio Brooks Academy,88,190.51,120.2,190.51,501.22,Single-ply,SBD,M
Boys,89.81,9,Robert Cervantez,Dilley,89.36,190.51,104.33,199.58,494.42,Single-ply,SBD,M
Boys,89.81,10,Justin Faulkner,Comfort,84.19,172.37,122.47,185.97,480.81,Single-ply,SBD,M
Boys,89.81,11,Rigo Hernandez,Uvalde,86.36,185.97,106.59,185.97,478.54,Single-ply,SBD,M
Boys,89.81,12,Jesse Ramirez #3,Floresville,83.91,161.03,83.91,170.1,415.04,Single-ply,SBD,M
Boys,89.81,13,Lorenzo Washington,Marion,89.27,140.61,111.13,161.03,412.77,Single-ply,SBD,M
Boys,89.81,14,Joshua Cuevas,Pearsall,83.19,145.15,90.72,167.83,403.7,Single-ply,SBD,M
Boys,89.81,15,Joseph Epperson,Pearsall,85.91,122.47,79.38,154.22,356.07,Single-ply,SBD,M
Boys,89.81,DQ,Derek Garcia,Uvalde,85.28,163.29,106.59,,,Single-ply,SBD,M
Boys,89.81,DQ,Emilio Alvarado,Crystal City,82.46,,,,,Single-ply,SBD,M
Boys,99.79,1,Mark Bocanegra,Jourdanton,96.8,299.37,183.7,204.12,687.19,Single-ply,SBD,M
Boys,99.79,2,Joshua Garza,San Antonio East Central,97.52,244.94,181.44,226.8,653.17,Single-ply,SBD,M
Boys,99.79,3,Joey Mendez,San Antonio Memorial,99.7,274.42,124.74,222.26,621.42,Single-ply,SBD,M
Boys,99.79,4,Tyler Crisp,Poteet,92.08,238.14,111.13,222.26,571.53,Single-ply,SBD,M
Boys,99.79,5,Raphael Dehoyos,Marion,95.62,195.04,142.88,226.8,564.72,Single-ply,SBD,M
Boys,99.79,6,Ryan Gibson,Jourdanton,98.52,210.92,142.88,199.58,553.38,Single-ply,SBD,M
Boys,99.79,7,Ray Palomeque,Pearsall,98.7,185.97,122.47,217.72,526.17,Single-ply,SBD,M
Boys,99.79,8,Bryce Sandoval,Poteet,97.98,197.31,124.74,197.31,519.36,Single-ply,SBD,M
Boys,99.79,9,Joey Sanchez,Somerset,91.99,206.38,111.13,188.24,505.76,Single-ply,SBD,M
Boys,99.79,10,Thomas Duron,San Antonio Brooks Academy,92.35,181.44,113.4,199.58,494.42,Single-ply,SBD,M
Boys,99.79,11,Kaleb Brogdon,San Antonio East Central,90.72,192.78,108.86,181.44,483.08,Single-ply,SBD,M
Boys,99.79,12,Josh Duran,Marion,99.61,181.44,108.86,190.51,480.81,Single-ply,SBD,M
Boys,99.79,13,Jose Coronado,San Antonio Memorial,94.26,165.56,88.45,161.03,415.04,Single-ply,SBD,M
Boys,99.79,14,Zack Zavala,Crystal City,95.98,149.69,99.79,142.88,392.36,Single-ply,SBD,M
Boys,99.79,15,Antonio Ramirez,Crystal City,94.17,149.69,86.18,147.42,383.29,Single-ply,SBD,M
Boys,99.79,16,Ricky Kester,San Antonio East Central,94.26,113.4,81.65,136.08,331.12,Single-ply,SBD,M
Boys,99.79,17,Jose Tabullo,Comfort,96.52,113.4,102.06,115.67,331.12,Single-ply,SBD,M
Boys,99.79,DQ,Garrett Martinez,Pearsall,99.25,,,,,Single-ply,SBD,M
Boys,109.77,1,Enrique Lugo,Jourdanton,106.59,328.85,226.8,265.35,821,Single-ply,SBD,M
Boys,109.77,2,Justin Lomas,Crystal City,106.96,272.16,113.4,233.6,619.15,Single-ply,SBD,M
Boys,109.77,3,Jacob Ybarra,Somerset,109.36,204.12,145.15,183.7,532.97,Single-ply,SBD,M
Boys,109.77,4,Jason Cortez,Uvalde,102.97,222.26,124.74,181.44,528.44,Single-ply,SBD,M
Boys,109.77,5,Cory Opiela,Floresville,107.41,210.92,120.2,197.31,528.44,Single-ply,SBD,M
Boys,109.77,6,Paul Esparza,San Antonio Brooks Academy,104.78,192.78,111.13,206.38,510.29,Single-ply,SBD,M
Boys,109.77,7,Joe Tovar,Somerset,105.23,204.12,102.06,174.63,480.81,Single-ply,SBD,M
Boys,109.77,8,Cole Richey,Comfort,101.6,181.44,106.59,181.44,469.47,Single-ply,SBD,M
Boys,109.77,9,Ruben Molina,Dilley,103.15,172.37,115.67,172.37,460.4,Single-ply,SBD,M
Boys,109.77,10,Martin Mendez,San Antonio Memorial,104.42,170.1,83.91,185.97,439.98,Single-ply,SBD,M
Boys,109.77,11,Juan Aguinaga,Uvalde,108.05,158.76,104.33,167.83,430.91,Single-ply,SBD,M
Boys,109.77,12,Fabian Morales,San Antonio Memorial,105.6,147.42,95.25,158.76,401.43,Single-ply,SBD,M
Boys,124.74,DQ,Refugio Faz,Somerset,110,,,,,Single-ply,SBD,M
Boys,124.74,1,William Olson,Jourdanton,113.13,278.96,151.95,229.06,659.98,Single-ply,SBD,M
Boys,124.74,2,Justin Brister,Jourdanton,119.57,281.23,149.69,229.06,659.98,Single-ply,SBD,M
Boys,124.74,3,Bj Frieda,Somerset,115.67,274.42,131.54,210.92,616.89,Single-ply,SBD,M
Boys,124.74,4,Joshua Macat,Lytle,111.67,265.35,124.74,224.53,614.62,Single-ply,SBD,M
Boys,124.74,5,Joe Reschmann,Somerset,123.83,249.48,158.76,192.78,601.01,Single-ply,SBD,M
Boys,124.74,6,Reuban Duron,San Antonio East Central,114.94,231.33,133.81,197.31,562.45,Single-ply,SBD,M
Boys,124.74,7,Izzy Robeson,Comfort,124.38,217.72,140.61,204.12,562.45,Single-ply,SBD,M
Boys,124.74,8,Juan Ramirez,Carrizo Springs,119.2,190.51,145.15,204.12,539.77,Single-ply,SBD,M
Boys,124.74,9,Michael Balderas,Poteet,124.47,242.67,102.06,188.24,532.97,Single-ply,SBD,M
Boys,124.74,10,Jonathan Ramirez,Lytle,111.86,208.65,113.4,204.12,526.17,Single-ply,SBD,M
Boys,124.74,11,Hector Garcia #8,Poteet,115.12,204.12,104.33,172.37,480.81,Single-ply,SBD,M
Boys,124.74,12,Andres Garzes,San Antonio Memorial,110.4,199.58,104.33,174.63,478.54,Single-ply,SBD,M
Boys,124.74,13,Caesar Salazar,Marion,119.29,167.83,122.47,161.03,451.32,Single-ply,SBD,M
Boys,124.74,14,Elias Torres,Carrizo Springs,119.57,183.7,102.06,154.22,439.98,Single-ply,SBD,M
Boys,124.74,15,Damien Bullis,Center Point,118.21,158.76,104.33,158.76,421.84,Single-ply,SBD,M
Boys,124.74+,1,Drew Kirkpatrick,Uvalde,138.25,272.16,181.44,226.8,680.39,Single-ply,SBD,M
Boys,124.74+,2,JohnPaul Lugo,Jourdanton,125.1,288.03,145.15,235.87,669.05,Single-ply,SBD,M
Boys,124.74+,3,Julius Gonzales,Dilley,129.64,265.35,131.54,217.72,614.62,Single-ply,SBD,M
Boys,124.74+,4,Cody Martin,Center Point,133.27,238.14,145.15,226.8,610.08,Single-ply,SBD,M
Boys,124.74+,5,Austyn Carrizales,Dilley,141.88,260.82,104.33,226.8,591.94,Single-ply,SBD,M
Boys,124.74+,6,Daniel Ramirez,Somerset,128.37,249.48,113.4,226.8,589.67,Single-ply,SBD,M
Boys,124.74+,7,Tyler Cagle,San Antonio East Central,138.53,226.8,149.69,204.12,580.6,Single-ply,SBD,M
Boys,124.74+,8,Ronnie Lucio,Poteet,144.51,249.48,124.74,195.04,569.26,Single-ply,SBD,M
Boys,124.74+,9,Mike Romero,Somerset,140.61,215.46,156.49,174.63,546.58,Single-ply,SBD,M
Boys,124.74+,10,Noah Ramirez,Comfort,129.18,217.72,115.67,206.38,539.77,Single-ply,SBD,M
Boys,124.74+,11,Mario Chavez,Carrizo Springs,181.53,188.24,142.88,199.58,530.7,Single-ply,SBD,M
Boys,124.74+,12,Tyler Moore,Comfort,135.08,190.51,106.59,192.78,489.88,Single-ply,SBD,M
Boys,124.74+,13,Julian Martinez,Pearsall,150.96,142.88,88.45,140.61,371.95,Single-ply,SBD,M
Boys,124.74+,14,Elijah Munoz,Carrizo Springs,129.82,131.54,72.57,145.15,349.27,Single-ply,SBD,M
Boys,124.74+,DQ,Darren Garcia,Crystal City,146.51,,,,,Single-ply,SBD,M
Boys,124.74+,DQ,Edward Gonzales,Crystal City,129.09,,,,,Single-ply,SBD,M
