Place,Name,Sex,Event,Division,WeightClassKg,Equipment,BirthYear,State,BodyweightKg,Squat1Kg,Squat2Kg,Squat3Kg,Best3SquatKg,Bench1Kg,Bench2Kg,Bench3Kg,Best3BenchKg,Deadlift1Kg,Deadlift2Kg,Deadlift3Kg,Best3DeadliftKg,TotalKg,Age,BirthDate
1,Rachel Rheam,F,SBD,FR-Jr,84,Raw,2000,PA,83.6,87.5,92.5,97.5,97.5,57.5,-62.5,62.5,62.5,130,137.5,145,145.0,305,,
1,Stephanie Knackstedt,F,SBD,FR-M1a,63,Raw,1979,VA,60.15,72.5,75,77.5,77.5,47.5,52.5,55,55.0,140,145,147.5,147.5,280,,
2,Heather Robertson,F,SBD,FR-M1a,63,Raw,1976,VA,59.25,60,67.5,72.5,72.5,42.5,-50,50,50.0,90,-100,100,100.0,222.5,,
1,Annette Morgan,F,SBD,FR-M1a,72,Raw,1977,VA,70.4,85,90,102.5,102.5,62.5,65,-67.5,65.0,110,115,-120,115.0,282.5,,
1,Sarah Tucker,F,SBD,FR-M1a,84,Raw,1978,VA,73.4,70,75,80,80.0,40,42.5,-45,42.5,115,122.5,125,125.0,247.5,,
1,Laura Carlson,F,SBD,FR-M1b,52,Raw,1974,MD,51.35,77.5,82.5,87.5,87.5,37.5,40,42.5,42.5,82.5,87.5,92.5,92.5,222.5,,
1,Samantha Pappas,F,SBD,FR-O,52,Raw,1996,VA,51.75,85,92.5,-95,92.5,-52.5,55,57.5,57.5,-107.5,107.5,112.5,112.5,262.5,,
2,Laura Carlson,F,SBD,FR-O,52,Raw,1974,MD,51.35,77.5,82.5,87.5,87.5,37.5,40,42.5,42.5,82.5,87.5,92.5,92.5,222.5,,
1,Robyn Ross,F,SBD,FR-O,63,Raw,2003,VA,62.45,115,117.5,120,120.0,-60,60,65,65.0,150,157.5,165,165.0,350,,
2,Tammi Ramos,F,SBD,FR-O,63,Raw,1992,FL,61.25,60,-72.5,72.5,72.5,37.5,42.5,-45,42.5,75,80,85,85.0,200,,
1,Kelly Findlay,F,SBD,FR-O,72,Raw,1989,VA,69.25,102.5,110,115,115.0,57.5,62.5,65,65.0,135,147.5,157.5,157.5,337.5,,
2,Diana Chalikova,F,SBD,FR-O,72,Raw,1988,MD,67.85,112.5,-122.5,-122.5,112.5,52.5,55,-57.5,55.0,125,132.5,137.5,137.5,305,,
3,Erin Macpherson,F,SBD,FR-O,72,Raw,1990,MD,70.4,95,100,110,110.0,55,62.5,-65,62.5,107.5,120,132.5,132.5,305,,
4,Megan Napier,F,SBD,FR-O,72,Raw,1987,VA,68.4,55,62.5,67.5,67.5,37.5,42.5,45,45.0,65,80,90,90.0,202.5,,
1,Alexandria Slayton,F,SBD,FR-O,84,Raw,1990,VA,81.35,87.5,95,-102.5,95.0,70,-72.5,-75,70.0,95,100,110,110.0,275,,
1,Sophia Sharp,F,SBD,FR-T1,84,Raw,2005,VA,81.3,97.5,105,112.5,112.5,50,-55,-55,50.0,105,115,-125,115.0,277.5,,
1,Robyn Ross,F,SBD,FR-T2,63,Raw,2003,VA,62.45,115,117.5,120,120.0,-60,60,65,65.0,150,157.5,165,165.0,350,,
1,Danielle Martino,F,SBD,FR-T3,72,Raw,2000,FL,65.94,65,-75,75,75.0,52.5,-55,55,55.0,102.5,107.5,110,110.0,240,,
1,Jasmine Canonizado,F,SBD,FR-Y1,30,Raw,2010,VA,29.9,-50,50,-52.5,50.0,22.5,-25,-25,22.5,55,60,70,70.0,142.5,,
1,Fiona Paul,F,SBD,FR-Y2,47,Raw,2010,DE,46.55,47.5,50,52.5,52.5,22.5,25,27.5,27.5,67.5,70,72.5,72.5,152.5,,
1,Samantha Browning,F,SBD,FR-Y2,52,Raw,2009,VA,51.8,42.5,47.5,50,50.0,22.5,25,27.5,27.5,65,70,72.5,72.5,150,,
G,Nick Sia,M,SBD,MR-G,83,Raw,1997,OH,82.56,207.5,220,-227.5,220.0,132.5,142.5,-145,142.5,242.5,255,265,265.0,627.5,,
G,Albert Mategrano,M,SBD,MR-G,83,Raw,1969,VA,82.3,155,165,170,170.0,110,117.5,122.5,122.5,187.5,197.5,207.5,207.5,500,,
1,Christopher Renfro,M,SBD,MR-Jr,83,Raw,1998,VA,76.35,-175,185,-190,185.0,102.5,110,-115,110.0,-200,207.5,-215,207.5,502.5,,
1,Dawson Matthews,M,SBD,MR-Jr,93,Raw,1998,VA,92.8,-195,195,200,200.0,-120,120,125,125.0,240,250,260,260.0,585,,
2,Benjamin Inglis,M,SBD,MR-Jr,93,Raw,1997,VA,83.7,-165,165,172.5,172.5,112.5,120,-130,120.0,195,210,-220,210.0,502.5,,
3,Micahel Trossman,M,SBD,MR-Jr,93,Raw,1998,VA,92.2,170,-182.5,-182.5,170.0,110,120,-125,120.0,190,207.5,-210,207.5,497.5,,
4,Kieran Koch,M,SBD,MR-Jr,93,Raw,2000,VA,88.9,175,185,-192.5,185.0,100,107.5,110,110.0,185,195,200,200.0,495,,
5,Stephen Lynn,M,SBD,MR-Jr,93,Raw,1998,PA,86.75,122.5,127.5,132.5,132.5,-100,100,-102.5,100.0,145,152.5,-167.5,152.5,385,,
1,Ashton Rouska,M,SBD,MR-Jr,105,Raw,1997,TX,99.1,320,340,,340.0,-190,202.5,,202.5,335,365,377.5,377.5,920,,
1,Daniel Shaver #2,M,SBD,MR-Jr,120,Raw,1999,VA,118.5,215,227.5,240,240.0,142.5,-150,150,150.0,230,242.5,255,255.0,645,,
DQ,Christopher Poulos,M,SBD,MR-O,66,Raw,1994,MD,64.45,-130,-135,-135,,87.5,-90,,87.5,165,172.5,185,185.0,,,
1,Amos Yiga,M,SBD,MR-O,74,Raw,1993,VA,73.6,160,-165,180,180.0,120,135,-145,135.0,220,245,-247.5,245.0,560,,
2,Juan Ponce-Rodriguez,M,SBD,MR-O,74,Raw,1994,VA,69.95,157.5,160,167.5,167.5,-92.5,-92.5,95,95.0,180,187.5,192.5,192.5,455,,
3,Hansen Li,M,SBD,MR-O,74,Raw,1992,VA,72.7,125,140,-150,140.0,102.5,110,-115,110.0,185,205,-215,205.0,455,,
1,Lane Newman,M,SBD,MR-O,83,Raw,2001,VA,82.33,175,185,192.5,192.5,-125,125,137.5,137.5,182.5,212.5,217.5,217.5,547.5,,
2,Khai Le,M,SBD,MR-O,83,Raw,1988,VA,81.3,165,175,-182.5,175.0,112.5,120,122.5,122.5,217.5,230,240,240.0,537.5,,
3,Michael Jewell,M,SBD,MR-O,83,Raw,1989,VA,82.3,172.5,182.5,192.5,192.5,115,122.5,-127.5,122.5,190,202.5,210,210.0,525,,
4,Brian Murphy #1,M,SBD,MR-O,83,Raw,1996,DC,82.85,192.5,200,-210,200.0,-112.5,112.5,-120,112.5,190,202.5,-205,202.5,515,,
5,Austin Testerman,M,SBD,MR-O,83,Raw,2002,VA,80.85,147.5,157.5,-165,157.5,87.5,92.5,95,95.0,145,152.5,165,165.0,417.5,,
1,Branden Coates,M,SBD,MR-O,93,Raw,1993,MD,87.3,205,217.5,222.5,222.5,160,175,182.5,182.5,212.5,230,237.5,237.5,642.5,,
2,Richard McGhee Jr,M,SBD,MR-O,93,Raw,1996,VA,88.4,170,177.5,-187.5,177.5,125,-130,-130,125.0,187.5,195,207.5,207.5,510,,
3,Micahel Trossman,M,SBD,MR-O,93,Raw,1998,VA,92.2,170,-182.5,-182.5,170.0,110,120,-125,120.0,190,207.5,-210,207.5,497.5,,
4,Austin Deinarowicz,M,SBD,MR-O,93,Raw,1995,MD,92.3,165,-170,172.5,172.5,120,125,130,130.0,175,185,195,195.0,497.5,,
5,Timothy Carr,M,SBD,MR-O,93,Raw,1992,VA,85.7,170,177.5,180,180.0,-82.5,87.5,92.5,92.5,175,182.5,190,190.0,462.5,,
1,Ashton Rouska,M,SBD,MR-O,105,Raw,1997,TX,99.1,320,340,,340.0,-190,202.5,,202.5,335,365,377.5,377.5,920,,
2,Kevin Luke,M,SBD,MR-O,105,Raw,1989,VA,102.5,205,217.5,227.5,227.5,162.5,170,175,175.0,245,257.5,267.5,267.5,670,,1989-07-05
3,Ian Johnson,M,SBD,MR-O,105,Raw,2004,VA,103.15,175,185,192.5,192.5,120,127.5,-132.5,127.5,190,200,212.5,212.5,532.5,,
1,Jonathan Goss,M,SBD,MR-O,120,Raw,1992,VA,109.6,225,245,252.5,252.5,160,170,-182.5,170.0,225,240,-260,240.0,662.5,,
DQ,Felix Harmon,M,SBD,MR-O,120,Raw,2002,DE,119.8,-240,-240,-240,,-110,110,-120,110.0,200,210,,210.0,,,
1,Ryan Foray,M,SBD,MR-O,120+,Raw,1988,VA,129.9,175,-185,-185,175.0,160,-170,-170,160.0,210,220,-230,220.0,555,,
DQ,Emanuele Calcagno,M,SBD,MR-O,120+,Raw,1988,VA,145.5,-270,-270,-270,,-150,150,-170,150.0,240,242.5,-270,242.5,,,
1,Jacob Booros,M,SBD,MR-T1,74,Raw,2005,DE,71.84,120,125,-130,125.0,62.5,-65,-65,62.5,110,120,130,130.0,317.5,,
DQ,Zachary Smith,M,SBD,MR-T1,83,Raw,2005,VA,80.6,-120,-130,-130,,-97.5,97.5,-102.5,97.5,155,170,182.5,182.5,,,
1,Riley Finder,M,SBD,MR-T2,74,Raw,2003,NC,73.35,145,152.5,-160,152.5,-100,100,-107.5,100.0,192.5,200,-210,200.0,452.5,,
1,Ian Johnson,M,SBD,MR-T2,105,Raw,2004,VA,103.15,175,185,192.5,192.5,120,127.5,-132.5,127.5,190,200,212.5,212.5,532.5,,
1,Lane Newman,M,SBD,MR-T3,83,Raw,2001,VA,82.33,175,185,192.5,192.5,-125,125,137.5,137.5,182.5,212.5,217.5,217.5,547.5,,
2,Austin Testerman,M,SBD,MR-T3,83,Raw,2002,VA,80.85,147.5,157.5,-165,157.5,87.5,92.5,95,95.0,145,152.5,165,165.0,417.5,,
DQ,Felix Harmon,M,SBD,MR-T3,120,Raw,2002,DE,119.8,-240,-240,-240,,-110,110,-120,110.0,200,210,,210.0,,,
